Part2/Files/tb_pll.vcd
$date
	Sat Oct  4 14:23:38 2025
$end
$version
	Icarus Verilog
$end
$timescale
	1s
$end
$scope module tb_pll $end
$var wire 1 ! CLK $end
$var reg 1 " EN_VCO $end
$var reg 1 # REF $end
$var reg 1 $ VCO_IN $end
$var reg 1 % VDDA $end
$var reg 1 & VDDD $end
$var reg 1 ' VSSA $end
$var reg 1 ( VSSD $end
$var reg 1 ) c $end
$scope module dut $end
$var wire 1 ) ENb_CP $end
$var wire 1 " ENb_VCO $end
$var wire 1 # REF $end
$var wire 1 $ VCO_IN $end
$var reg 1 ! CLK $end
$var real 1 * lastedge $end
$var real 1 + period $end
$var real 1 , refpd $end
$upscope $end
$upscope $end
$enddefinitions $end
#0
$dumpvars
r0 ,
r25 +
r0 *
1)
0(
0'
0&
0%
0$
0#
1"
0!
$end
#13
1!
#26
0!
#39
1!
#52
0!
#65
1!
#78
0!
#91
1!
#100
r100 *
1#
#104
0!
#117
1!
#130
0!
#142
1$
#143
1!
#156
0!
#169
1!
#182
0!
#195
1!
#208
0!
#221
1!
#234
0!
#242
0#
#247
1!
#260
0!
#273
1!
#284
0$
#286
0!
#299
1!
#312
0!
#325
1!
#338
0!
#351
1!
#364
0!
#377
1!
#384
r384 *
r35.5 +
r284 ,
1#
#390
0!
#408
1!
#426
0!
1$
#444
1!
#462
0!
#480
1!
#498
0!
#516
1!
#526
0#
#534
0!
#552
1!
#568
0$
#570
0!
#588
1!
#606
0!
#624
1!
#642
0!
#660
1!
#668
r668 *
1#
#678
0!
#696
1!
#710
1$
#714
0!
#732
1!
#750
0!
#768
1!
#786
0!
#804
1!
#810
0#
#822
0!
#840
1!
#852
0$
#858
0!
#876
1!
#894
0!
#912
1!
#930
0!
#948
1!
#952
r952 *
1#
#966
0!
#984
1!
#994
1$
#1002
0!
#1020
1!
#1038
0!
#1056
1!
#1074
0!
#1092
1!
#1094
0#
#1110
0!
#1128
1!
#1136
0$
#1146
0!
#1164
1!
#1182
0!
#1200
1!
#1218
0!
#1236
1!
r1236 *
1#
#1254
0!
#1272
1!
#1278
1$
#1290
0!
#1308
1!
#1326
0!
#1344
1!
#1362
0!
#1378
0#
#1380
1!
#1398
0!
#1416
1!
#1420
0$
#1434
0!
#1452
1!
#1470
0!
#1488
1!
#1506
0!
#1520
r1520 *
1#
#1524
1!
#1542
0!
#1560
1!
#1562
1$
#1578
0!
#1596
1!
#1614
0!
#1632
1!
#1650
0!
#1662
0#
#1668
1!
#1686
0!
#1704
1!
0$
#1722
0!
#1740
1!
#1758
0!
#1776
1!
#1794
0!
#1804
r1804 *
1#
#1812
1!
#1830
0!
#1846
1$
#1848
1!
#1866
0!
#1884
1!
#1902
0!
#1920
1!
#1938
0!
#1946
0#
#1956
1!
#1974
0!
#1988
0$
#1992
1!
#2010
0!
#2028
1!
#2046
0!
#2064
1!
#2082
0!
#2088
r2088 *
1#
#2100
1!
#2118
0!
#2130
1$
#2136
1!
#2154
0!
#2172
1!
#2190
0!
#2208
1!
#2226
0!
#2230
0#
#2244
1!
#2262
0!
#2272
0$
#2280
1!
#2298
0!
#2316
1!
#2334
0!
#2352
1!
#2370
0!
#2372
r2372 *
1#
#2388
1!
#2406
0!
#2414
1$
#2424
1!
#2442
0!
#2460
1!
#2478
0!
#2496
1!
#2514
0!
0#
#2532
1!
#2550
0!
#2556
0$
#2568
1!
#2586
0!
#2604
1!
#2622
0!
#2640
1!
#2656
r2656 *
1#
#2658
0!
#2676
1!
#2694
0!
#2698
1$
#2712
1!
#2730
0!
#2748
1!
#2766
0!
#2784
1!
#2798
0#
#2802
0!
#2820
1!
#2838
0!
#2840
0$
#2856
1!
#2874
0!
#2892
1!
#2910
0!
#2928
1!
#2940
r2940 *
1#
#2946
0!
#2964
1!
#2982
0!
1$
#3000
1!
#3018
0!
#3036
1!
#3054
0!
#3072
1!
#3082
0#
#3090
0!
#3108
1!
#3124
0$
#3126
0!
#3144
1!
#3162
0!
#3180
1!
#3198
0!
#3216
1!
#3224
r3224 *
1#
#3234
0!
#3252
1!
#3266
1$
#3270
0!
#3288
1!
#3306
0!
#3324
1!
#3342
0!
#3360
1!
#3366
0#
#3378
0!
#3396
1!
#3408
0$
#3414
0!
#3432
1!
#3450
0!
#3468
1!
#3486
0!
#3504
1!
#3508
r3508 *
1#
#3522
0!
#3540
1!
#3550
1$
#3558
0!
#3576
1!
#3594
0!
#3612
1!
#3630
0!
#3648
1!
#3650
0#
#3666
0!
#3684
1!
#3692
0$
#3702
0!
#3720
1!
#3738
0!
#3756
1!
#3774
0!
#3792
1!
r3792 *
1#
#3810
0!
#3828
1!
#3834
1$
#3846
0!
#3864
1!
#3882
0!
#3900
1!
#3918
0!
#3934
0#
#3936
1!
#3954
0!
#3972
1!
#3976
0$
#3990
0!
#4008
1!
#4026
0!
#4044
1!
#4062
0!
#4076
r4076 *
1#
#4080
1!
#4098
0!
#4116
1!
#4118
1$
#4134
0!
#4152
1!
#4170
0!
#4188
1!
#4206
0!
#4218
0#
#4224
1!
#4242
0!
#4260
1!
0$
#4278
0!
#4296
1!
#4314
0!
#4332
1!
#4350
0!
#4360
r4360 *
1#
#4368
1!
#4386
0!
#4402
1$
#4404
1!
#4422
0!
#4440
1!
#4458
0!
#4476
1!
#4494
0!
#4502
0#
#4512
1!
#4530
0!
#4544
0$
#4548
1!
#4566
0!
#4584
1!
#4602
0!
#4620
1!
#4638
0!
#4644
r4644 *
1#
#4656
1!
#4674
0!
#4686
1$
#4692
1!
#4710
0!
#4728
1!
#4746
0!
#4764
1!
#4782
0!
#4786
0#
#4800
1!
#4818
0!
#4828
0$
#4836
1!
#4854
0!
#4872
1!
#4890
0!
#4908
1!
#4926
0!
#4928
r4928 *
1#
#4944
1!
#4962
0!
#4970
1$
#4980
1!
#4998
0!
#5016
1!
#5034
0!
#5052
1!
#5070
0!
0#
#5088
1!
#5106
0!
#5112
0$
#5124
1!
#5142
0!
#5160
1!
#5178
0!
#5196
1!
#5212
r5212 *
1#
#5214
0!
#5232
1!
#5250
0!
#5254
1$
#5268
1!
#5286
0!
#5304
1!
#5322
0!
#5340
1!
#5354
0#
#5358
0!
#5376
1!
#5394
0!
#5396
0$
#5412
1!
#5430
0!
#5448
1!
#5466
0!
#5484
1!
#5496
r5496 *
1#
#5502
0!
#5520
1!
#5538
0!
1$
#5556
1!
#5574
0!
#5592
1!
#5610
0!
#5628
1!
#5638
0#
#5646
0!
#5664
1!
#5680
0$
#5682
0!
#5700
1!
#5718
0!
#5736
1!
#5754
0!
#5772
1!
#5780
r5780 *
1#
#5790
0!
#5808
1!
#5822
1$
#5826
0!
#5844
1!
#5862
0!
#5880
1!
#5898
0!
#5916
1!
#5922
0#
#5934
0!
#5952
1!
#5964
0$
#5970
0!
#5988
1!
#6006
0!
#6024
1!
#6042
0!
#6060
1!
#6064
r6064 *
1#
#6078
0!
#6096
1!
#6106
1$
#6114
0!
#6132
1!
#6150
0!
#6168
1!
#6186
0!
#6204
1!
#6206
0#
#6222
0!
#6240
1!
#6248
0$
#6258
0!
#6276
1!
#6294
0!
#6312
1!
#6330
0!
#6348
1!
r6348 *
1#
#6366
0!
#6384
1!
#6390
1$
#6402
0!
#6420
1!
#6438
0!
#6456
1!
#6474
0!
#6490
0#
#6492
1!
#6510
0!
#6528
1!
#6532
0$
#6546
0!
#6564
1!
#6582
0!
#6600
1!
#6618
0!
#6632
r6632 *
1#
#6636
1!
#6654
0!
#6672
1!
#6674
1$
#6690
0!
#6708
1!
#6726
0!
#6744
1!
#6762
0!
#6774
0#
#6780
1!
#6798
0!
#6816
1!
0$
#6834
0!
#6852
1!
#6870
0!
#6888
1!
#6906
0!
#6916
r6916 *
1#
#6924
1!
#6942
0!
#6958
1$
#6960
1!
#6978
0!
#6996
1!
#7014
0!
#7032
1!
#7050
0!
#7058
0#
#7068
1!
#7086
0!
#7100
0$
#7104
1!
#7122
0!
#7140
1!
#7158
0!
#7176
1!
#7194
0!
#7200
r7200 *
1#
#7212
1!
#7230
0!
#7242
1$
#7248
1!
#7266
0!
#7284
1!
#7302
0!
#7320
1!
#7338
0!
#7342
0#
#7356
1!
#7374
0!
#7384
0$
#7392
1!
#7410
0!
#7428
1!
#7446
0!
#7464
1!
#7482
0!
#7484
r7484 *
1#
#7500
1!
#7518
0!
#7526
1$
#7536
1!
#7554
0!
#7572
1!
#7590
0!
#7608
1!
#7626
0!
0#
#7644
1!
#7662
0!
#7668
0$
#7680
1!
#7698
0!
#7716
1!
#7734
0!
#7752
1!
#7768
r7768 *
1#
#7770
0!
#7788
1!
#7806
0!
#7810
1$
#7824
1!
#7842
0!
#7860
1!
#7878
0!
#7896
1!
#7910
0#
#7914
0!
#7932
1!
#7950
0!
#7952
0$
#7968
1!
#7986
0!
#8004
1!
#8022
0!
#8040
1!
#8052
r8052 *
1#
#8058
0!
#8076
1!
#8094
0!
1$
#8112
1!
#8130
0!
#8148
1!
#8166
0!
#8184
1!
#8194
0#
#8202
0!
#8220
1!
#8236
0$
#8238
0!
#8256
1!
#8274
0!
#8292
1!
#8310
0!
#8328
1!
#8336
r8336 *
1#
#8346
0!
#8364
1!
#8378
1$
#8382
0!
#8400
1!
#8418
0!
#8436
1!
#8454
0!
#8472
1!
#8478
0#
#8490
0!
#8508
1!
#8520
0$
#8526
0!
#8544
1!
#8562
0!
#8580
1!
#8598
0!
#8616
1!
#8620
r8620 *
1#
#8634
0!
#8652
1!
#8662
1$
#8670
0!
#8688
1!
#8706
0!
#8724
1!
#8742
0!
#8760
1!
#8762
0#
#8778
0!
#8796
1!
#8804
0$
#8814
0!
#8832
1!
#8850
0!
#8868
1!
#8886
0!
#8904
1!
r8904 *
1#
#8922
0!
#8940
1!
#8946
1$
#8958
0!
#8976
1!
#8994
0!
#9012
1!
#9030
0!
#9046
0#
#9048
1!
#9066
0!
#9084
1!
#9088
0$
#9102
0!
#9120
1!
#9138
0!
#9156
1!
#9174
0!
#9188
r9188 *
1#
#9192
1!
#9210
0!
#9228
1!
#9230
1$
#9246
0!
#9264
1!
#9282
0!
#9300
1!
#9318
0!
#9330
0#
#9336
1!
#9354
0!
#9372
1!
0$
#9390
0!
#9408
1!
#9426
0!
#9444
1!
#9462
0!
#9472
r9472 *
1#
#9480
1!
#9498
0!
#9514
1$
#9516
1!
#9534
0!
#9552
1!
#9570
0!
#9588
1!
#9606
0!
#9614
0#
#9624
1!
#9642
0!
#9656
0$
#9660
1!
#9678
0!
#9696
1!
#9714
0!
#9732
1!
#9750
0!
#9756
r9756 *
1#
#9768
1!
#9786
0!
#9798
1$
#9804
1!
#9822
0!
#9840
1!
#9858
0!
#9876
1!
#9894
0!
#9898
0#
#9912
1!
#9930
0!
#9940
0$
#9948
1!
#9966
0!
#9984
1!
#10002
0!
#10020
1!
#10038
0!
#10040
r10040 *
1#
#10056
1!
#10074
0!
#10082
1$
#10092
1!
#10110
0!
#10128
1!
#10146
0!
#10164
1!
#10182
0!
0#
#10200
1!
#10218
0!
#10224
0$
#10236
1!
#10254
0!
#10272
1!
#10290
0!
#10308
1!
#10324
r10324 *
1#
#10326
0!
#10344
1!
#10362
0!
#10366
1$
#10380
1!
#10398
0!
#10416
1!
#10434
0!
#10452
1!
#10466
0#
#10470
0!
#10488
1!
#10506
0!
#10508
0$
#10524
1!
#10542
0!
#10560
1!
#10578
0!
#10596
1!
#10608
r10608 *
1#
#10614
0!
#10632
1!
#10650
0!
1$
#10668
1!
#10686
0!
#10704
1!
#10722
0!
#10740
1!
#10750
0#
#10758
0!
#10776
1!
#10792
0$
#10794
0!
#10812
1!
#10830
0!
#10848
1!
#10866
0!
#10884
1!
#10892
r10892 *
1#
#10902
0!
#10920
1!
#10934
1$
#10938
0!
#10956
1!
#10974
0!
#10992
1!
#11010
0!
#11028
1!
#11034
0#
#11046
0!
#11064
1!
#11076
0$
#11082
0!
#11100
1!
#11118
0!
#11136
1!
#11154
0!
#11172
1!
#11176
r11176 *
1#
#11190
0!
#11208
1!
#11218
1$
#11226
0!
#11244
1!
#11262
0!
#11280
1!
#11298
0!
#11316
1!
#11318
0#
#11334
0!
#11352
1!
#11360
0$
#11370
0!
#11388
1!
#11406
0!
#11424
1!
#11442
0!
#11460
1!
r11460 *
1#
#11478
0!
#11496
1!
#11502
1$
#11514
0!
#11532
1!
#11550
0!
#11568
1!
#11586
0!
#11602
0#
#11604
1!
#11622
0!
#11640
1!
#11644
0$
#11658
0!
#11676
1!
#11694
0!
#11712
1!
#11730
0!
#11744
r11744 *
1#
#11748
1!
#11766
0!
#11784
1!
#11786
1$
#11802
0!
#11820
1!
#11838
0!
#11856
1!
#11874
0!
#11886
0#
#11892
1!
#11910
0!
#11928
1!
0$
#11946
0!
#11964
1!
#11982
0!
#12000
1!
#12018
0!
#12028
r12028 *
1#
#12036
1!
#12054
0!
#12070
1$
#12072
1!
#12090
0!
#12108
1!
#12126
0!
#12144
1!
#12162
0!
#12170
0#
#12180
1!
#12198
0!
#12212
0$
#12216
1!
#12234
0!
#12252
1!
#12270
0!
#12288
1!
#12306
0!
#12312
r12312 *
1#
#12324
1!
#12342
0!
#12354
1$
#12360
1!
#12378
0!
#12396
1!
#12414
0!
#12432
1!
#12450
0!
#12454
0#
#12468
1!
#12486
0!
#12496
0$
#12504
1!
#12522
0!
#12540
1!
#12558
0!
#12576
1!
#12594
0!
#12596
r12596 *
1#
#12612
1!
#12630
0!
#12638
1$
#12648
1!
#12666
0!
#12684
1!
#12702
0!
#12720
1!
#12738
0!
0#
#12756
1!
#12774
0!
#12780
0$
#12792
1!
#12810
0!
#12828
1!
#12846
0!
#12864
1!
#12880
r12880 *
1#
#12882
0!
#12900
1!
#12918
0!
#12922
1$
#12936
1!
#12954
0!
#12972
1!
#12990
0!
#13008
1!
#13022
0#
#13026
0!
#13044
1!
#13062
0!
#13064
0$
#13080
1!
#13098
0!
#13116
1!
#13134
0!
#13152
1!
#13164
r13164 *
1#
#13170
0!
#13188
1!
#13206
0!
1$
#13224
1!
#13242
0!
#13260
1!
#13278
0!
#13296
1!
#13306
0#
#13314
0!
#13332
1!
#13348
0$
#13350
0!
#13368
1!
#13386
0!
#13404
1!
#13422
0!
#13440
1!
#13448
r13448 *
1#
#13458
0!
#13476
1!
#13490
1$
#13494
0!
#13512
1!
#13530
0!
#13548
1!
#13566
0!
#13584
1!
#13590
0#
#13602
0!
#13620
1!
#13632
0$
#13638
0!
#13656
1!
#13674
0!
#13692
1!
#13710
0!
#13728
1!
#13732
r13732 *
1#
#13746
0!
#13764
1!
#13774
1$
#13782
0!
#13800
1!
#13818
0!
#13836
1!
#13854
0!
#13872
1!
#13874
0#
#13890
0!
#13908
1!
#13916
0$
#13926
0!
#13944
1!
#13962
0!
#13980
1!
#13998
0!
#14016
1!
r14016 *
1#
#14034
0!
#14052
1!
#14058
1$
#14070
0!
#14088
1!
#14106
0!
#14124
1!
#14142
0!
#14158
0#
#14160
1!
#14178
0!
#14196
1!
#14200
0$
#14214
0!
#14232
1!
#14250
0!
#14268
1!
#14286
0!
#14300
r14300 *
1#
#14304
1!
#14322
0!
#14340
1!
#14342
1$
#14358
0!
#14376
1!
#14394
0!
#14412
1!
#14430
0!
#14442
0#
#14448
1!
#14466
0!
#14484
1!
0$
#14502
0!
#14520
1!
#14538
0!
#14556
1!
#14574
0!
#14584
r14584 *
1#
#14592
1!
#14610
0!
#14626
1$
#14628
1!
#14646
0!
#14664
1!
#14682
0!
#14700
1!
#14718
0!
#14726
0#
#14736
1!
#14754
0!
#14768
0$
#14772
1!
#14790
0!
#14808
1!
#14826
0!
#14844
1!
#14862
0!
#14868
r14868 *
1#
#14880
1!
#14898
0!
#14910
1$
#14916
1!
#14934
0!
#14952
1!
#14970
0!
#14988
1!
#15006
0!
#15010
0#
#15024
1!
#15042
0!
#15052
0$
#15060
1!
#15078
0!
#15096
1!
#15114
0!
#15132
1!
#15150
0!
#15152
r15152 *
1#
#15168
1!
#15186
0!
#15194
1$
#15204
1!
#15222
0!
#15240
1!
#15258
0!
#15276
1!
#15294
0!
0#
#15312
1!
#15330
0!
#15336
0$
#15348
1!
#15366
0!
#15384
1!
#15402
0!
#15420
1!
#15436
r15436 *
1#
#15438
0!
#15456
1!
#15474
0!
#15478
1$
#15492
1!
#15510
0!
#15528
1!
#15546
0!
#15564
1!
#15578
0#
#15582
0!
#15600
1!
#15618
0!
#15620
0$
#15636
1!
#15654
0!
#15672
1!
#15690
0!
#15708
1!
#15720
r15720 *
1#
#15726
0!
#15744
1!
#15762
0!
1$
#15780
1!
#15798
0!
#15816
1!
#15834
0!
#15852
1!
#15862
0#
#15870
0!
#15888
1!
#15904
0$
#15906
0!
#15924
1!
#15942
0!
#15960
1!
#15978
0!
#15996
1!
#16004
r16004 *
1#
#16014
0!
#16032
1!
#16046
1$
#16050
0!
#16068
1!
#16086
0!
#16104
1!
#16122
0!
#16140
1!
#16146
0#
#16158
0!
#16176
1!
#16188
0$
#16194
0!
#16212
1!
#16230
0!
#16248
1!
#16266
0!
#16284
1!
#16288
r16288 *
1#
#16302
0!
#16320
1!
#16330
1$
#16338
0!
#16356
1!
#16374
0!
#16392
1!
#16410
0!
#16428
1!
#16430
0#
#16446
0!
#16464
1!
#16472
0$
#16482
0!
#16500
1!
#16518
0!
#16536
1!
#16554
0!
#16572
1!
r16572 *
1#
#16590
0!
#16608
1!
#16614
1$
#16626
0!
#16644
1!
#16662
0!
#16680
1!
#16698
0!
#16714
0#
#16716
1!
#16734
0!
#16752
1!
#16756
0$
#16770
0!
#16788
1!
#16806
0!
#16824
1!
#16842
0!
#16856
r16856 *
1#
#16860
1!
#16878
0!
#16896
1!
#16898
1$
#16914
0!
#16932
1!
#16950
0!
#16968
1!
#16986
0!
#16998
0#
#17004
1!
#17022
0!
#17040
1!
0$
#17058
0!
#17076
1!
#17094
0!
#17112
1!
#17130
0!
#17140
r17140 *
1#
#17148
1!
#17166
0!
#17182
1$
#17184
1!
#17202
0!
#17220
1!
#17238
0!
#17256
1!
#17274
0!
#17282
0#
#17292
1!
#17310
0!
#17324
0$
#17328
1!
#17346
0!
#17364
1!
#17382
0!
#17400
1!
#17418
0!
#17424
r17424 *
1#
#17436
1!
#17454
0!
#17466
1$
#17472
1!
#17490
0!
#17508
1!
#17526
0!
#17544
1!
#17562
0!
#17566
0#
#17580
1!
#17598
0!
#17608
0$
#17616
1!
#17634
0!
#17652
1!
#17670
0!
#17688
1!
#17706
0!
#17708
r17708 *
1#
#17724
1!
#17742
0!
#17750
1$
#17760
1!
#17778
0!
#17796
1!
#17814
0!
#17832
1!
#17850
0!
0#
#17868
1!
#17886
0!
#17892
0$
#17904
1!
#17922
0!
#17940
1!
#17958
0!
#17976
1!
#17992
r17992 *
1#
#17994
0!
#18012
1!
#18030
0!
#18034
1$
#18048
1!
#18066
0!
#18084
1!
#18102
0!
#18120
1!
#18134
0#
#18138
0!
#18156
1!
#18174
0!
#18176
0$
#18192
1!
#18210
0!
#18228
1!
#18246
0!
#18264
1!
#18276
r18276 *
1#
#18282
0!
#18300
1!
#18318
0!
1$
#18336
1!
#18354
0!
#18372
1!
#18390
0!
#18408
1!
#18418
0#
#18426
0!
#18444
1!
#18460
0$
#18462
0!
#18480
1!
#18498
0!
#18516
1!
#18534
0!
#18552
1!
#18560
r18560 *
1#
#18570
0!
#18588
1!
#18602
1$
#18606
0!
#18624
1!
#18642
0!
#18660
1!
#18678
0!
#18696
1!
#18702
0#
#18714
0!
#18732
1!
#18744
0$
#18750
0!
#18768
1!
#18786
0!
#18804
1!
#18822
0!
#18840
1!
#18844
r18844 *
1#
#18858
0!
#18876
1!
#18886
1$
#18894
0!
#18912
1!
#18930
0!
#18948
1!
#18966
0!
#18984
1!
#18986
0#
#19002
0!
#19020
1!
#19028
0$
#19038
0!
#19056
1!
#19074
0!
#19092
1!
#19110
0!
#19128
1!
r19128 *
1#
#19146
0!
#19164
1!
#19170
1$
#19182
0!
#19200
1!
#19218
0!
#19236
1!
#19254
0!
#19270
0#
#19272
1!
#19290
0!
#19308
1!
#19312
0$
#19326
0!
#19344
1!
#19362
0!
#19380
1!
#19398
0!
#19412
r19412 *
1#
#19416
1!
#19434
0!
#19452
1!
#19454
1$
#19470
0!
#19488
1!
#19506
0!
#19524
1!
#19542
0!
#19554
0#
#19560
1!
#19578
0!
#19596
1!
0$
#19614
0!
#19632
1!
#19650
0!
#19668
1!
#19686
0!
#19696
r19696 *
1#
#19704
1!
#19722
0!
#19738
1$
#19740
1!
#19758
0!
#19776
1!
#19794
0!
#19812
1!
#19830
0!
#19838
0#
#19848
1!
#19866
0!
#19880
0$
#19884
1!
#19902
0!
#19920
1!
#19938
0!
#19956
1!
#19974
0!
#19980
r19980 *
1#
#19992
1!
#20010
0!
#20022
1$
#20028
1!
#20046
0!
#20064
1!
#20082
0!
#20100
1!
#20118
0!
#20122
0#
#20136
1!
#20154
0!
#20164
0$
#20172
1!
#20190
0!
#20208
1!
#20226
0!
#20244
1!
#20262
0!
#20264
r20264 *
1#
#20280
1!
#20298
0!
#20306
1$
#20316
1!
#20334
0!
#20352
1!
#20370
0!
#20388
1!
#20406
0!
0#
#20424
1!
#20442
0!
#20448
0$
#20460
1!
#20478
0!
#20496
1!
#20514
0!
#20532
1!
#20548
r20548 *
1#
#20550
0!
#20568
1!
#20586
0!
#20590
1$
#20604
1!
#20622
0!
#20640
1!
#20658
0!
#20676
1!
#20690
0#
#20694
0!
#20712
1!
#20730
0!
#20732
0$
#20748
1!
#20766
0!
#20784
1!
#20802
0!
#20820
1!
#20832
r20832 *
1#
#20838
0!
#20856
1!
#20874
0!
1$
#20892
1!
#20910
0!
#20928
1!
#20946
0!
#20964
1!
#20974
0#
#20982
0!
#21000
1!
#21016
0$
#21018
0!
#21036
1!
#21054
0!
#21072
1!
#21090
0!
#21108
1!
#21116
r21116 *
1#
#21126
0!
#21144
1!
#21158
1$
#21162
0!
#21180
1!
#21198
0!
#21216
1!
#21234
0!
#21252
1!
#21258
0#
#21270
0!
#21288
1!
#21300
0$
#21306
0!
#21324
1!
#21342
0!
#21360
1!
#21378
0!
#21396
1!
#21400
r21400 *
1#
#21414
0!
#21432
1!
#21442
1$
#21450
0!
#21468
1!
#21486
0!
#21504
1!
#21522
0!
#21540
1!
#21542
0#
#21558
0!
#21576
1!
#21584
0$
#21594
0!
#21612
1!
#21630
0!
#21648
1!
#21666
0!
#21684
1!
r21684 *
1#
#21702
0!
#21720
1!
#21726
1$
#21738
0!
#21756
1!
#21774
0!
#21792
1!
#21810
0!
#21826
0#
#21828
1!
#21846
0!
#21864
1!
#21868
0$
#21882
0!
#21900
1!
#21918
0!
#21936
1!
#21954
0!
#21968
r21968 *
1#
#21972
1!
#21990
0!
#22008
1!
#22010
1$
#22026
0!
#22044
1!
#22062
0!
#22080
1!
#22098
0!
#22110
0#
#22116
1!
#22134
0!
#22152
1!
0$
#22170
0!
#22188
1!
#22206
0!
#22224
1!
#22242
0!
#22252
r22252 *
1#
#22260
1!
#22278
0!
#22294
1$
#22296
1!
#22314
0!
#22332
1!
#22350
0!
#22368
1!
#22386
0!
#22394
0#
#22404
1!
#22422
0!
#22436
0$
#22440
1!
#22458
0!
#22476
1!
#22494
0!
#22512
1!
#22530
0!
#22536
r22536 *
1#
#22548
1!
#22566
0!
#22578
1$
#22584
1!
#22602
0!
#22620
1!
#22638
0!
#22656
1!
#22674
0!
#22678
0#
#22692
1!
#22710
0!
#22720
0$
#22728
1!
#22746
0!
#22764
1!
#22782
0!
#22800
1!
#22818
0!
#22820
r22820 *
1#
#22836
1!
#22854
0!
#22862
1$
#22872
1!
#22890
0!
#22908
1!
#22926
0!
#22944
1!
#22962
0!
0#
#22980
1!
#22998
0!
#23004
0$
#23016
1!
#23034
0!
#23052
1!
#23070
0!
#23088
1!
#23104
r23104 *
1#
#23106
0!
#23124
1!
#23142
0!
#23146
1$
#23160
1!
#23178
0!
#23196
1!
#23214
0!
#23232
1!
#23246
0#
#23250
0!
#23268
1!
#23286
0!
#23288
0$
#23304
1!
#23322
0!
#23340
1!
#23358
0!
#23376
1!
#23388
r23388 *
1#
#23394
0!
#23412
1!
#23430
0!
1$
#23448
1!
#23466
0!
#23484
1!
#23502
0!
#23520
1!
#23530
0#
#23538
0!
#23556
1!
#23572
0$
#23574
0!
#23592
1!
#23610
0!
#23628
1!
#23646
0!
#23664
1!
#23672
r23672 *
1#
#23682
0!
#23700
1!
#23714
1$
#23718
0!
#23736
1!
#23754
0!
#23772
1!
#23790
0!
#23808
1!
#23814
0#
#23826
0!
#23844
1!
#23856
0$
#23862
0!
#23880
1!
#23898
0!
#23916
1!
#23934
0!
#23952
1!
#23956
r23956 *
1#
#23970
0!
#23988
1!
#23998
1$
#24006
0!
#24024
1!
#24042
0!
#24060
1!
#24078
0!
#24096
1!
#24098
0#
#24114
0!
#24132
1!
#24140
0$
#24150
0!
#24168
1!
#24186
0!
#24204
1!
#24222
0!
#24240
1!
r24240 *
1#
#24258
0!
#24276
1!
#24282
1$
#24294
0!
#24312
1!
#24330
0!
#24348
1!
#24366
0!
#24382
0#
#24384
1!
#24402
0!
#24420
1!
#24424
0$
#24438
0!
#24456
1!
#24474
0!
#24492
1!
#24510
0!
#24524
r24524 *
1#
#24528
1!
#24546
0!
#24564
1!
#24566
1$
#24582
0!
#24600
1!
#24618
0!
#24636
1!
#24654
0!
#24666
0#
#24672
1!
#24690
0!
#24708
1!
0$
#24726
0!
#24744
1!
#24762
0!
#24780
1!
#24798
0!
#24808
r24808 *
1#
#24816
1!
#24834
0!
#24850
1$
#24852
1!
#24870
0!
#24888
1!
#24906
0!
#24924
1!
#24942
0!
#24950
0#
#24960
1!
#24978
0!
#24992
0$
#24996
1!
#25014
0!
#25032
1!
#25050
0!
#25068
1!
#25086
0!
#25092
r25092 *
1#
#25104
1!
#25122
0!
#25134
1$
#25140
1!
#25158
0!
#25176
1!
#25194
0!
#25212
1!
#25230
0!
#25234
0#
#25248
1!
#25266
0!
#25276
0$
#25284
1!
#25302
0!
#25320
1!
#25338
0!
#25356
1!
#25374
0!
#25376
r25376 *
1#
#25392
1!
#25410
0!
#25418
1$
#25428
1!
#25446
0!
#25464
1!
#25482
0!
#25500
1!
#25518
0!
0#
#25536
1!
#25554
0!
#25560
0$
#25572
1!
#25590
0!
#25608
1!
#25626
0!
#25644
1!
#25660
r25660 *
1#
#25662
0!
#25680
1!
#25698
0!
#25702
1$
#25716
1!
#25734
0!
#25752
1!
#25770
0!
#25788
1!
#25802
0#
#25806
0!
#25824
1!
#25842
0!
#25844
0$
#25860
1!
#25878
0!
#25896
1!
#25914
0!
#25932
1!
#25944
r25944 *
1#
#25950
0!
#25968
1!
#25986
0!
1$
#26004
1!
#26022
0!
#26040
1!
#26058
0!
#26076
1!
#26086
0#
#26094
0!
#26112
1!
#26128
0$
#26130
0!
#26148
1!
#26166
0!
#26184
1!
#26202
0!
#26220
1!
#26228
r26228 *
1#
#26238
0!
#26256
1!
#26270
1$
#26274
0!
#26292
1!
#26310
0!
#26328
1!
#26346
0!
#26364
1!
#26370
0#
#26382
0!
#26400
1!
#26412
0$
#26418
0!
#26436
1!
#26454
0!
#26472
1!
#26490
0!
#26508
1!
#26512
r26512 *
1#
#26526
0!
#26544
1!
#26554
1$
#26562
0!
#26580
1!
#26598
0!
#26616
1!
#26634
0!
#26652
1!
#26654
0#
#26670
0!
#26688
1!
#26696
0$
#26706
0!
#26724
1!
#26742
0!
#26760
1!
#26778
0!
#26796
1!
r26796 *
1#
#26814
0!
#26832
1!
#26838
1$
#26850
0!
#26868
1!
#26886
0!
#26904
1!
#26922
0!
#26938
0#
#26940
1!
#26958
0!
#26976
1!
#26980
0$
#26994
0!
#27012
1!
#27030
0!
#27048
1!
#27066
0!
#27080
r27080 *
1#
#27084
1!
#27102
0!
#27120
1!
#27122
1$
#27138
0!
#27156
1!
#27174
0!
#27192
1!
#27210
0!
#27222
0#
#27228
1!
#27246
0!
#27264
1!
0$
#27282
0!
#27300
1!
#27318
0!
#27336
1!
#27354
0!
#27364
r27364 *
1#
#27372
1!
#27390
0!
#27406
1$
#27408
1!
#27426
0!
#27444
1!
#27462
0!
#27480
1!
#27498
0!
#27506
0#
#27516
1!
#27534
0!
#27548
0$
#27552
1!
#27570
0!
#27588
1!
#27606
0!
#27624
1!
#27642
0!
#27648
r27648 *
1#
#27660
1!
#27678
0!
#27690
1$
#27696
1!
#27714
0!
#27732
1!
#27750
0!
#27768
1!
#27786
0!
#27790
0#
#27804
1!
#27822
0!
#27832
0$
#27840
1!
#27858
0!
#27876
1!
#27894
0!
#27912
1!
#27930
0!
#27932
r27932 *
1#
#27948
1!
#27966
0!
#27974
1$
#27984
1!
#28002
0!
#28020
1!
#28038
0!
#28056
1!
#28074
0!
0#
#28092
1!
#28110
0!
#28116
0$
#28128
1!
#28146
0!
#28164
1!
#28182
0!
#28200
1!
#28216
r28216 *
1#
#28218
0!
#28236
1!
#28254
0!
#28258
1$
#28272
1!
#28290
0!
#28308
1!
#28326
0!
#28344
1!
#28358
0#
#28362
0!
#28380
1!
#28398
0!
#28400
0$
#28416
1!
#28434
0!
#28452
1!
#28470
0!
#28488
1!
#28500
r28500 *
1#
#28506
0!
#28524
1!
#28542
0!
1$
#28560
1!
#28578
0!
#28596
1!
#28614
0!
#28632
1!
#28642
0#
#28650
0!
#28668
1!
#28684
0$
#28686
0!
#28704
1!
#28722
0!
#28740
1!
#28758
0!
#28776
1!
#28784
r28784 *
1#
#28794
0!
#28812
1!
#28826
1$
#28830
0!
#28848
1!
#28866
0!
#28884
1!
#28902
0!
#28920
1!
#28926
0#
#28938
0!
#28956
1!
#28968
0$
#28974
0!
#28992
1!
#29010
0!
#29028
1!
