Part2/Files/tb_rvmyth.vcd
$date
	Sat Oct  4 14:49:47 2025
$end
$version
	Icarus Verilog
$end
$timescale
	1ps
$end
$scope module tb_rvmyth $end
$var wire 10 ! out [9:0] $end
$var reg 1 " clk $end
$var reg 1 # reset $end
$scope module uut $end
$var wire 1 " CLK $end
$var wire 1 $ CPU_dmem_rd_en_a4 $end
$var wire 1 % CPU_dmem_wr_en_a4 $end
$var wire 1 & CPU_funct3_valid_a1 $end
$var wire 1 ' CPU_funct7_valid_a1 $end
$var wire 32 ( CPU_instr_a1 [31:0] $end
$var wire 1 ) CPU_is_i_instr_a1 $end
$var wire 1 * CPU_is_jump_a1 $end
$var wire 1 + CPU_is_r_instr_a1 $end
$var wire 1 , CPU_is_s_instr_a1 $end
$var wire 1 - CPU_is_u_instr_a1 $end
$var wire 32 . CPU_ld_data_a5 [31:0] $end
$var wire 1 / CPU_rd_valid_a1 $end
$var wire 1 0 CPU_reset_a0 $end
$var wire 32 1 CPU_rf_rd_data1_a2 [31:0] $end
$var wire 32 2 CPU_rf_rd_data2_a2 [31:0] $end
$var wire 1 3 CPU_rf_rd_en1_a2 $end
$var wire 1 4 CPU_rf_rd_en2_a2 $end
$var wire 5 5 CPU_rf_rd_index1_a2 [4:0] $end
$var wire 5 6 CPU_rf_rd_index2_a2 [4:0] $end
$var wire 1 7 CPU_rf_wr_en_a3 $end
$var wire 1 8 CPU_rs1_valid_a1 $end
$var wire 1 9 CPU_rs2_valid_a1 $end
$var wire 1 : CPU_valid_jump_a3 $end
$var wire 1 ; CPU_valid_load_a3 $end
$var wire 1 < CPU_valid_taken_br_a3 $end
$var wire 1 = clk $end
$var wire 1 # reset $end
$var wire 32 > w_CPU_dmem_rd_data_a4 [31:0] $end
$var wire 5 ? w_CPU_rs2_a1 [4:0] $end
$var wire 5 @ w_CPU_rs1_a1 [4:0] $end
$var wire 5 A w_CPU_rd_a1 [4:0] $end
$var wire 1 B clkP_CPU_rs2_valid_a2 $end
$var wire 1 C clkP_CPU_rs1_valid_a2 $end
$var wire 1 D clkP_CPU_rd_valid_a5 $end
$var wire 1 E clkP_CPU_rd_valid_a4 $end
$var wire 1 F clkP_CPU_rd_valid_a3 $end
$var wire 1 G clkP_CPU_rd_valid_a2 $end
$var wire 1 H clkP_CPU_dmem_rd_en_a5 $end
$var wire 1 I CPU_valid_a3 $end
$var wire 1 J CPU_taken_br_a3 $end
$var wire 32 K CPU_src2_value_a2 [31:0] $end
$var wire 32 L CPU_src1_value_a2 [31:0] $end
$var wire 1 M CPU_sltu_result_a3 $end
$var wire 1 N CPU_sltiu_result_a3 $end
$var wire 5 O CPU_rf_wr_index_a3 [4:0] $end
$var wire 32 P CPU_rf_wr_data_a3 [31:0] $end
$var wire 32 Q CPU_result_a3 [31:0] $end
$var wire 32 R CPU_pc_a0 [31:0] $end
$var wire 7 S CPU_opcode_a1 [6:0] $end
$var wire 32 T CPU_jalr_tgt_pc_a2 [31:0] $end
$var wire 1 U CPU_is_xori_a1 $end
$var wire 1 V CPU_is_xor_a1 $end
$var wire 1 W CPU_is_sw_a1 $end
$var wire 1 X CPU_is_sub_a1 $end
$var wire 1 Y CPU_is_srli_a1 $end
$var wire 1 Z CPU_is_srl_a1 $end
$var wire 1 [ CPU_is_srai_a1 $end
$var wire 1 \ CPU_is_sra_a1 $end
$var wire 1 ] CPU_is_sltu_a1 $end
$var wire 1 ^ CPU_is_sltiu_a1 $end
$var wire 1 _ CPU_is_slti_a1 $end
$var wire 1 ` CPU_is_slt_a1 $end
$var wire 1 a CPU_is_slli_a1 $end
$var wire 1 b CPU_is_sll_a1 $end
$var wire 1 c CPU_is_sh_a1 $end
$var wire 1 d CPU_is_sb_a1 $end
$var wire 1 e CPU_is_ori_a1 $end
$var wire 1 f CPU_is_or_a1 $end
$var wire 1 g CPU_is_lui_a1 $end
$var wire 1 h CPU_is_load_a1 $end
$var wire 1 i CPU_is_jalr_a1 $end
$var wire 1 j CPU_is_jal_a1 $end
$var wire 1 k CPU_is_j_instr_a1 $end
$var wire 1 l CPU_is_bne_a1 $end
$var wire 1 m CPU_is_bltu_a1 $end
$var wire 1 n CPU_is_blt_a1 $end
$var wire 1 o CPU_is_bgeu_a1 $end
$var wire 1 p CPU_is_bge_a1 $end
$var wire 1 q CPU_is_beq_a1 $end
$var wire 1 r CPU_is_b_instr_a1 $end
$var wire 1 s CPU_is_auipc_a1 $end
$var wire 1 t CPU_is_andi_a1 $end
$var wire 1 u CPU_is_and_a1 $end
$var wire 1 v CPU_is_addi_a1 $end
$var wire 1 w CPU_is_add_a1 $end
$var wire 32 x CPU_inc_pc_a1 [31:0] $end
$var wire 32 y CPU_imm_a1 [31:0] $end
$var wire 1 z CPU_imem_rd_en_a0 $end
$var wire 32 { CPU_imem_rd_data_a1 [31:0] $end
$var wire 32 | CPU_imem_rd_addr_a0 [31:0] $end
$var wire 7 } CPU_funct7_a1 [6:0] $end
$var wire 3 ~ CPU_funct3_a1 [2:0] $end
$var wire 32 !" CPU_dmem_wr_data_a4 [31:0] $end
$var wire 4 "" CPU_dmem_addr_a4 [3:0] $end
$var wire 11 #" CPU_dec_bits_a1 [10:0] $end
$var wire 32 $" CPU_br_tgt_pc_a2 [31:0] $end
$var reg 32 %" CPU_br_tgt_pc_a3 [31:0] $end
$var reg 32 &" CPU_dmem_rd_data_a5 [31:0] $end
$var reg 32 '" CPU_imem_rd_addr_a1 [31:0] $end
$var reg 1 (" CPU_imem_rd_en_a1 $end
$var reg 32 )" CPU_imm_a2 [31:0] $end
$var reg 32 *" CPU_imm_a3 [31:0] $end
$var reg 32 +" CPU_inc_pc_a2 [31:0] $end
$var reg 32 ," CPU_inc_pc_a3 [31:0] $end
$var reg 1 -" CPU_is_add_a2 $end
$var reg 1 ." CPU_is_add_a3 $end
$var reg 1 /" CPU_is_addi_a2 $end
$var reg 1 0" CPU_is_addi_a3 $end
$var reg 1 1" CPU_is_and_a2 $end
$var reg 1 2" CPU_is_and_a3 $end
$var reg 1 3" CPU_is_andi_a2 $end
$var reg 1 4" CPU_is_andi_a3 $end
$var reg 1 5" CPU_is_auipc_a2 $end
$var reg 1 6" CPU_is_auipc_a3 $end
$var reg 1 7" CPU_is_beq_a2 $end
$var reg 1 8" CPU_is_beq_a3 $end
$var reg 1 9" CPU_is_beq_a4 $end
$var reg 1 :" CPU_is_beq_a5 $end
$var reg 1 ;" CPU_is_bge_a2 $end
$var reg 1 <" CPU_is_bge_a3 $end
$var reg 1 =" CPU_is_bge_a4 $end
$var reg 1 >" CPU_is_bge_a5 $end
$var reg 1 ?" CPU_is_bgeu_a2 $end
$var reg 1 @" CPU_is_bgeu_a3 $end
$var reg 1 A" CPU_is_bgeu_a4 $end
$var reg 1 B" CPU_is_bgeu_a5 $end
$var reg 1 C" CPU_is_blt_a2 $end
$var reg 1 D" CPU_is_blt_a3 $end
$var reg 1 E" CPU_is_blt_a4 $end
$var reg 1 F" CPU_is_blt_a5 $end
$var reg 1 G" CPU_is_bltu_a2 $end
$var reg 1 H" CPU_is_bltu_a3 $end
$var reg 1 I" CPU_is_bltu_a4 $end
$var reg 1 J" CPU_is_bltu_a5 $end
$var reg 1 K" CPU_is_bne_a2 $end
$var reg 1 L" CPU_is_bne_a3 $end
$var reg 1 M" CPU_is_bne_a4 $end
$var reg 1 N" CPU_is_bne_a5 $end
$var reg 1 O" CPU_is_jal_a2 $end
$var reg 1 P" CPU_is_jal_a3 $end
$var reg 1 Q" CPU_is_jalr_a2 $end
$var reg 1 R" CPU_is_jalr_a3 $end
$var reg 1 S" CPU_is_jump_a2 $end
$var reg 1 T" CPU_is_jump_a3 $end
$var reg 1 U" CPU_is_load_a2 $end
$var reg 1 V" CPU_is_load_a3 $end
$var reg 1 W" CPU_is_lui_a2 $end
$var reg 1 X" CPU_is_lui_a3 $end
$var reg 1 Y" CPU_is_or_a2 $end
$var reg 1 Z" CPU_is_or_a3 $end
$var reg 1 [" CPU_is_ori_a2 $end
$var reg 1 \" CPU_is_ori_a3 $end
$var reg 1 ]" CPU_is_s_instr_a2 $end
$var reg 1 ^" CPU_is_s_instr_a3 $end
$var reg 1 _" CPU_is_s_instr_a4 $end
$var reg 1 `" CPU_is_sb_a2 $end
$var reg 1 a" CPU_is_sb_a3 $end
$var reg 1 b" CPU_is_sb_a4 $end
$var reg 1 c" CPU_is_sb_a5 $end
$var reg 1 d" CPU_is_sh_a2 $end
$var reg 1 e" CPU_is_sh_a3 $end
$var reg 1 f" CPU_is_sh_a4 $end
$var reg 1 g" CPU_is_sh_a5 $end
$var reg 1 h" CPU_is_sll_a2 $end
$var reg 1 i" CPU_is_sll_a3 $end
$var reg 1 j" CPU_is_slli_a2 $end
$var reg 1 k" CPU_is_slli_a3 $end
$var reg 1 l" CPU_is_slt_a2 $end
$var reg 1 m" CPU_is_slt_a3 $end
$var reg 1 n" CPU_is_slti_a2 $end
$var reg 1 o" CPU_is_slti_a3 $end
$var reg 1 p" CPU_is_sltiu_a2 $end
$var reg 1 q" CPU_is_sltiu_a3 $end
$var reg 1 r" CPU_is_sltu_a2 $end
$var reg 1 s" CPU_is_sltu_a3 $end
$var reg 1 t" CPU_is_sra_a2 $end
$var reg 1 u" CPU_is_sra_a3 $end
$var reg 1 v" CPU_is_srai_a2 $end
$var reg 1 w" CPU_is_srai_a3 $end
$var reg 1 x" CPU_is_srl_a2 $end
$var reg 1 y" CPU_is_srl_a3 $end
$var reg 1 z" CPU_is_srli_a2 $end
$var reg 1 {" CPU_is_srli_a3 $end
$var reg 1 |" CPU_is_sub_a2 $end
$var reg 1 }" CPU_is_sub_a3 $end
$var reg 1 ~" CPU_is_sw_a2 $end
$var reg 1 !# CPU_is_sw_a3 $end
$var reg 1 "# CPU_is_sw_a4 $end
$var reg 1 ## CPU_is_sw_a5 $end
$var reg 1 $# CPU_is_xor_a2 $end
$var reg 1 %# CPU_is_xor_a3 $end
$var reg 1 &# CPU_is_xori_a2 $end
$var reg 1 '# CPU_is_xori_a3 $end
$var reg 32 (# CPU_jalr_tgt_pc_a3 [31:0] $end
$var reg 32 )# CPU_pc_a1 [31:0] $end
$var reg 32 *# CPU_pc_a2 [31:0] $end
$var reg 32 +# CPU_pc_a3 [31:0] $end
$var reg 5 ,# CPU_rd_a2 [4:0] $end
$var reg 5 -# CPU_rd_a3 [4:0] $end
$var reg 5 .# CPU_rd_a4 [4:0] $end
$var reg 5 /# CPU_rd_a5 [4:0] $end
$var reg 1 0# CPU_rd_valid_a2 $end
$var reg 1 1# CPU_rd_valid_a3 $end
$var reg 1 2# CPU_rd_valid_a4 $end
$var reg 1 3# CPU_reset_a1 $end
$var reg 1 4# CPU_reset_a2 $end
$var reg 1 5# CPU_reset_a3 $end
$var reg 1 6# CPU_reset_a4 $end
$var reg 4 7# CPU_result_a4 [5:2] $end
$var reg 5 8# CPU_rs1_a2 [4:0] $end
$var reg 1 9# CPU_rs1_valid_a2 $end
$var reg 5 :# CPU_rs2_a2 [4:0] $end
$var reg 1 ;# CPU_rs2_valid_a2 $end
$var reg 32 <# CPU_src1_value_a3 [31:0] $end
$var reg 32 =# CPU_src2_value_a3 [31:0] $end
$var reg 32 ># CPU_src2_value_a4 [31:0] $end
$var reg 1 ?# CPU_valid_a4 $end
$var reg 1 @# CPU_valid_jump_a4 $end
$var reg 1 A# CPU_valid_jump_a5 $end
$var reg 1 B# CPU_valid_load_a4 $end
$var reg 1 C# CPU_valid_load_a5 $end
$var reg 1 D# CPU_valid_taken_br_a4 $end
$var reg 1 E# CPU_valid_taken_br_a5 $end
$var reg 10 F# OUT [9:0] $end
$scope begin L1_CPU_Dmem[0] $end
$var wire 1 G# L1_wr_a4 $end
$upscope $end
$scope begin L1_CPU_Dmem[1] $end
$var wire 1 H# L1_wr_a4 $end
$upscope $end
$scope begin L1_CPU_Dmem[2] $end
$var wire 1 I# L1_wr_a4 $end
$upscope $end
$scope begin L1_CPU_Dmem[3] $end
$var wire 1 J# L1_wr_a4 $end
$upscope $end
$scope begin L1_CPU_Dmem[4] $end
$var wire 1 K# L1_wr_a4 $end
$upscope $end
$scope begin L1_CPU_Dmem[5] $end
$var wire 1 L# L1_wr_a4 $end
$upscope $end
$scope begin L1_CPU_Dmem[6] $end
$var wire 1 M# L1_wr_a4 $end
$upscope $end
$scope begin L1_CPU_Dmem[7] $end
$var wire 1 N# L1_wr_a4 $end
$upscope $end
$scope begin L1_CPU_Dmem[8] $end
$var wire 1 O# L1_wr_a4 $end
$upscope $end
$scope begin L1_CPU_Dmem[9] $end
$var wire 1 P# L1_wr_a4 $end
$upscope $end
$scope begin L1_CPU_Dmem[10] $end
$var wire 1 Q# L1_wr_a4 $end
$upscope $end
$scope begin L1_CPU_Dmem[11] $end
$var wire 1 R# L1_wr_a4 $end
$upscope $end
$scope begin L1_CPU_Dmem[12] $end
$var wire 1 S# L1_wr_a4 $end
$upscope $end
$scope begin L1_CPU_Dmem[13] $end
$var wire 1 T# L1_wr_a4 $end
$upscope $end
$scope begin L1_CPU_Dmem[14] $end
$var wire 1 U# L1_wr_a4 $end
$upscope $end
$scope begin L1_CPU_Dmem[15] $end
$var wire 1 V# L1_wr_a4 $end
$upscope $end
$scope begin L1_CPU_Imem[0] $end
$upscope $end
$scope begin L1_CPU_Imem[1] $end
$upscope $end
$scope begin L1_CPU_Imem[2] $end
$upscope $end
$scope begin L1_CPU_Imem[3] $end
$upscope $end
$scope begin L1_CPU_Imem[4] $end
$upscope $end
$scope begin L1_CPU_Imem[5] $end
$upscope $end
$scope begin L1_CPU_Imem[6] $end
$upscope $end
$scope begin L1_CPU_Imem[7] $end
$upscope $end
$scope begin L1_CPU_Imem[8] $end
$upscope $end
$scope begin L1_CPU_Imem[9] $end
$upscope $end
$scope begin L1_CPU_Imem[10] $end
$upscope $end
$scope begin L1_CPU_Imem[11] $end
$upscope $end
$scope begin L1_CPU_Imem[12] $end
$upscope $end
$scope begin L1_CPU_Xreg[0] $end
$var wire 1 W# L1_wr_a3 $end
$upscope $end
$scope begin L1_CPU_Xreg[1] $end
$var wire 1 X# L1_wr_a3 $end
$upscope $end
$scope begin L1_CPU_Xreg[2] $end
$var wire 1 Y# L1_wr_a3 $end
$upscope $end
$scope begin L1_CPU_Xreg[3] $end
$var wire 1 Z# L1_wr_a3 $end
$upscope $end
$scope begin L1_CPU_Xreg[4] $end
$var wire 1 [# L1_wr_a3 $end
$upscope $end
$scope begin L1_CPU_Xreg[5] $end
$var wire 1 \# L1_wr_a3 $end
$upscope $end
$scope begin L1_CPU_Xreg[6] $end
$var wire 1 ]# L1_wr_a3 $end
$upscope $end
$scope begin L1_CPU_Xreg[7] $end
$var wire 1 ^# L1_wr_a3 $end
$upscope $end
$scope begin L1_CPU_Xreg[8] $end
$var wire 1 _# L1_wr_a3 $end
$upscope $end
$scope begin L1_CPU_Xreg[9] $end
$var wire 1 `# L1_wr_a3 $end
$upscope $end
$scope begin L1_CPU_Xreg[10] $end
$var wire 1 a# L1_wr_a3 $end
$upscope $end
$scope begin L1_CPU_Xreg[11] $end
$var wire 1 b# L1_wr_a3 $end
$upscope $end
$scope begin L1_CPU_Xreg[12] $end
$var wire 1 c# L1_wr_a3 $end
$upscope $end
$scope begin L1_CPU_Xreg[13] $end
$var wire 1 d# L1_wr_a3 $end
$upscope $end
$scope begin L1_CPU_Xreg[14] $end
$var wire 1 e# L1_wr_a3 $end
$upscope $end
$scope begin L1_CPU_Xreg[15] $end
$var wire 1 f# L1_wr_a3 $end
$upscope $end
$scope begin L1_CPU_Xreg[16] $end
$var wire 1 g# L1_wr_a3 $end
$upscope $end
$scope begin L1_CPU_Xreg[17] $end
$var wire 1 h# L1_wr_a3 $end
$upscope $end
$scope begin L1_CPU_Xreg[18] $end
$var wire 1 i# L1_wr_a3 $end
$upscope $end
$scope begin L1_CPU_Xreg[19] $end
$var wire 1 j# L1_wr_a3 $end
$upscope $end
$scope begin L1_CPU_Xreg[20] $end
$var wire 1 k# L1_wr_a3 $end
$upscope $end
$scope begin L1_CPU_Xreg[21] $end
$var wire 1 l# L1_wr_a3 $end
$upscope $end
$scope begin L1_CPU_Xreg[22] $end
$var wire 1 m# L1_wr_a3 $end
$upscope $end
$scope begin L1_CPU_Xreg[23] $end
$var wire 1 n# L1_wr_a3 $end
$upscope $end
$scope begin L1_CPU_Xreg[24] $end
$var wire 1 o# L1_wr_a3 $end
$upscope $end
$scope begin L1_CPU_Xreg[25] $end
$var wire 1 p# L1_wr_a3 $end
$upscope $end
$scope begin L1_CPU_Xreg[26] $end
$var wire 1 q# L1_wr_a3 $end
$upscope $end
$scope begin L1_CPU_Xreg[27] $end
$var wire 1 r# L1_wr_a3 $end
$upscope $end
$scope begin L1_CPU_Xreg[28] $end
$var wire 1 s# L1_wr_a3 $end
$upscope $end
$scope begin L1_CPU_Xreg[29] $end
$var wire 1 t# L1_wr_a3 $end
$upscope $end
$scope begin L1_CPU_Xreg[30] $end
$var wire 1 u# L1_wr_a3 $end
$upscope $end
$scope begin L1_CPU_Xreg[31] $end
$var wire 1 v# L1_wr_a3 $end
$upscope $end
$scope begin L1gen_CPU_Dmem[0] $end
$upscope $end
$scope begin L1gen_CPU_Dmem[1] $end
$upscope $end
$scope begin L1gen_CPU_Dmem[2] $end
$upscope $end
$scope begin L1gen_CPU_Dmem[3] $end
$upscope $end
$scope begin L1gen_CPU_Dmem[4] $end
$upscope $end
$scope begin L1gen_CPU_Dmem[5] $end
$upscope $end
$scope begin L1gen_CPU_Dmem[6] $end
$upscope $end
$scope begin L1gen_CPU_Dmem[7] $end
$upscope $end
$scope begin L1gen_CPU_Dmem[8] $end
$upscope $end
$scope begin L1gen_CPU_Dmem[9] $end
$upscope $end
$scope begin L1gen_CPU_Dmem[10] $end
$upscope $end
$scope begin L1gen_CPU_Dmem[11] $end
$upscope $end
$scope begin L1gen_CPU_Dmem[12] $end
$upscope $end
$scope begin L1gen_CPU_Dmem[13] $end
$upscope $end
$scope begin L1gen_CPU_Dmem[14] $end
$upscope $end
$scope begin L1gen_CPU_Dmem[15] $end
$upscope $end
$scope begin L1gen_CPU_Xreg[0] $end
$upscope $end
$scope begin L1gen_CPU_Xreg[1] $end
$upscope $end
$scope begin L1gen_CPU_Xreg[2] $end
$upscope $end
$scope begin L1gen_CPU_Xreg[3] $end
$upscope $end
$scope begin L1gen_CPU_Xreg[4] $end
$upscope $end
$scope begin L1gen_CPU_Xreg[5] $end
$upscope $end
$scope begin L1gen_CPU_Xreg[6] $end
$upscope $end
$scope begin L1gen_CPU_Xreg[7] $end
$upscope $end
$scope begin L1gen_CPU_Xreg[8] $end
$upscope $end
$scope begin L1gen_CPU_Xreg[9] $end
$upscope $end
$scope begin L1gen_CPU_Xreg[10] $end
$upscope $end
$scope begin L1gen_CPU_Xreg[11] $end
$upscope $end
$scope begin L1gen_CPU_Xreg[12] $end
$upscope $end
$scope begin L1gen_CPU_Xreg[13] $end
$upscope $end
$scope begin L1gen_CPU_Xreg[14] $end
$upscope $end
$scope begin L1gen_CPU_Xreg[15] $end
$upscope $end
$scope begin L1gen_CPU_Xreg[16] $end
$upscope $end
$scope begin L1gen_CPU_Xreg[17] $end
$upscope $end
$scope begin L1gen_CPU_Xreg[18] $end
$upscope $end
$scope begin L1gen_CPU_Xreg[19] $end
$upscope $end
$scope begin L1gen_CPU_Xreg[20] $end
$upscope $end
$scope begin L1gen_CPU_Xreg[21] $end
$upscope $end
$scope begin L1gen_CPU_Xreg[22] $end
$upscope $end
$scope begin L1gen_CPU_Xreg[23] $end
$upscope $end
$scope begin L1gen_CPU_Xreg[24] $end
$upscope $end
$scope begin L1gen_CPU_Xreg[25] $end
$upscope $end
$scope begin L1gen_CPU_Xreg[26] $end
$upscope $end
$scope begin L1gen_CPU_Xreg[27] $end
$upscope $end
$scope begin L1gen_CPU_Xreg[28] $end
$upscope $end
$scope begin L1gen_CPU_Xreg[29] $end
$upscope $end
$scope begin L1gen_CPU_Xreg[30] $end
$upscope $end
$scope begin L1gen_CPU_Xreg[31] $end
$upscope $end
$scope module gen_clkP_CPU_dmem_rd_en_a5 $end
$var wire 1 = free_clk $end
$var wire 1 w# func_en $end
$var wire 1 H gated_clk $end
$var wire 1 x# gating_override $end
$var wire 1 $ pwr_en $end
$upscope $end
$scope module gen_clkP_CPU_rd_valid_a2 $end
$var wire 1 = free_clk $end
$var wire 1 y# func_en $end
$var wire 1 G gated_clk $end
$var wire 1 z# gating_override $end
$var wire 1 / pwr_en $end
$upscope $end
$scope module gen_clkP_CPU_rd_valid_a3 $end
$var wire 1 = free_clk $end
$var wire 1 {# func_en $end
$var wire 1 F gated_clk $end
$var wire 1 |# gating_override $end
$var wire 1 0# pwr_en $end
$upscope $end
$scope module gen_clkP_CPU_rd_valid_a4 $end
$var wire 1 = free_clk $end
$var wire 1 }# func_en $end
$var wire 1 E gated_clk $end
$var wire 1 ~# gating_override $end
$var wire 1 1# pwr_en $end
$upscope $end
$scope module gen_clkP_CPU_rd_valid_a5 $end
$var wire 1 = free_clk $end
$var wire 1 !$ func_en $end
$var wire 1 D gated_clk $end
$var wire 1 "$ gating_override $end
$var wire 1 2# pwr_en $end
$upscope $end
$scope module gen_clkP_CPU_rs1_valid_a2 $end
$var wire 1 = free_clk $end
$var wire 1 #$ func_en $end
$var wire 1 C gated_clk $end
$var wire 1 $$ gating_override $end
$var wire 1 8 pwr_en $end
$upscope $end
$scope module gen_clkP_CPU_rs2_valid_a2 $end
$var wire 1 = free_clk $end
$var wire 1 %$ func_en $end
$var wire 1 B gated_clk $end
$var wire 1 &$ gating_override $end
$var wire 1 9 pwr_en $end
$upscope $end
$upscope $end
$upscope $end
$enddefinitions $end
#0
$dumpvars
0&$
1%$
0$$
1#$
0"$
1!$
0~#
1}#
0|#
1{#
0z#
1y#
0x#
1w#
xv#
xu#
xt#
xs#
xr#
xq#
xp#
xo#
xn#
xm#
xl#
xk#
xj#
xi#
xh#
xg#
xf#
xe#
xd#
xc#
xb#
xa#
x`#
x_#
x^#
x]#
x\#
x[#
xZ#
xY#
xX#
xW#
xV#
xU#
xT#
xS#
xR#
xQ#
xP#
xO#
xN#
xM#
xL#
xK#
xJ#
xI#
xH#
xG#
bx F#
xE#
xD#
xC#
xB#
xA#
x@#
x?#
bx >#
bx =#
bx <#
x;#
bx :#
x9#
bx 8#
bx 7#
x6#
x5#
x4#
03#
x2#
x1#
x0#
bx /#
bx .#
bx -#
bx ,#
bx +#
bx *#
bx )#
bx (#
x'#
x&#
x%#
x$#
x##
x"#
x!#
x~"
x}"
x|"
x{"
xz"
xy"
xx"
xw"
xv"
xu"
xt"
xs"
xr"
xq"
xp"
xo"
xn"
xm"
xl"
xk"
xj"
xi"
xh"
xg"
xf"
xe"
xd"
xc"
xb"
xa"
x`"
x_"
x^"
x]"
x\"
x["
xZ"
xY"
xX"
xW"
xV"
xU"
xT"
xS"
xR"
xQ"
xP"
xO"
xN"
xM"
xL"
xK"
xJ"
xI"
xH"
xG"
xF"
xE"
xD"
xC"
xB"
xA"
x@"
x?"
x>"
x="
x<"
x;"
x:"
x9"
x8"
x7"
x6"
x5"
x4"
x3"
x2"
x1"
x0"
x/"
x."
x-"
bx ,"
bx +"
bx *"
bx )"
1("
b0xxxx '"
bx &"
bx %"
bx $"
bx #"
bx ""
bx !"
bx ~
bx }
b0xxxx |
bx {
1z
bx y
bx x
xw
xv
xu
xt
xs
xr
xq
xp
xo
xn
xm
xl
xk
xj
xi
xh
xg
xf
xe
xd
xc
xb
xa
x`
x_
x^
x]
x\
x[
xZ
xY
xX
xW
xV
xU
bx T
bx S
bx R
bx Q
bx P
bx O
xN
xM
bx L
bx K
xJ
xI
1H
1G
1F
1E
1D
1C
1B
bx A
bx @
bx ?
bx >
1=
x<
x;
x:
x9
x8
x7
bx 6
bx 5
x4
x3
bx 2
bx 1
00
x/
bx .
x-
x,
x+
x*
x)
bx (
x'
x&
x%
x$
0#
1"
bx !
$end
#1000
0H
0G
0F
0E
0D
0C
0B
0=
0"
#2000
b0 |
b0 R
04#
13#
0("
1H
1G
1F
1E
1D
1C
1B
1=
1"
0z
10
1#
#3000
0H
0G
0F
0E
0D
0C
0B
0=
0"
#4000
1/
09
18
1&
1)
0'
0+
0*
0-
0,
b1 y
0q
0l
0n
0p
0m
0o
1v
0e
0U
0t
0_
0^
0h
0d
0c
0W
0g
0s
0j
0i
0r
0k
b1 ?
b0 @
b1001 A
0a
0Y
0[
b0 ~
b0 }
0w
0f
0V
0u
0X
0b
0`
0]
0Z
0\
b10011 #"
b10011 S
b100000000010010010011 (
b100000000010010010011 {
b0 '"
b100 x
b0 )#
14#
05#
1H
1G
1F
1E
1D
1C
1B
1=
1"
#5000
0H
0G
0F
0E
0D
0C
0B
0=
0"
#6000
b1001 ,#
b0 5
b0 8#
b1 6
b1 :#
04
0;#
13
19#
06#
15#
10#
b1 $"
b0 *#
0&#
0$#
0~"
0|"
0z"
0x"
0v"
0t"
0r"
0p"
0n"
0l"
0j"
0h"
0d"
0`"
0]"
0["
0Y"
0W"
0U"
0S"
0Q"
0O"
0K"
0G"
0C"
0?"
0;"
07"
05"
03"
01"
1/"
0-"
b100 +"
b1 )"
1H
1G
1F
1E
1D
1C
1B
1=
1"
#7000
0H
0G
0F
0E
0D
0C
0B
0=
0"
#8000
0<
0J
b1 T
b0 L
b1 K
0:
0;
b1001 -#
b0 1
b1 2
b1 %"
b1 *"
b100 ,"
0."
10"
02"
04"
06"
08"
0<"
0@"
0D"
0H"
0L"
0P"
0R"
0T"
0V"
0X"
0Z"
0\"
0^"
0a"
0e"
0i"
0k"
0m"
0o"
0q"
0s"
0u"
0w"
0y"
0{"
0}"
0!#
0%#
0'#
b0 +#
11#
16#
1H
1G
1F
1E
1D
1C
1B
1=
1"
#9000
0H
0G
0F
0E
0D
0C
0B
0=
0"
#10000
b1 Q
0G#
0H#
0I#
0J#
0K#
0L#
0M#
0N#
0O#
0P#
0Q#
0R#
0S#
0T#
0U#
0V#
0%
b1001 .#
0D#
0$
0B#
0@#
1M
b1 =#
1N
b0 <#
12#
b1 (#
0"#
0f"
0b"
0_"
0M"
0I"
0E"
0A"
0="
09"
1H
1G
1F
1E
1D
1C
1B
1=
1"
#11000
0H
0G
0F
0E
0D
0C
0B
0=
0"
#12000
1`#
17
b1 P
1I
0W#
0X#
0Y#
0Z#
0[#
0\#
0]#
0^#
0_#
0a#
0b#
0c#
0d#
0e#
0f#
0g#
0h#
0i#
0j#
0k#
0l#
0m#
0n#
0o#
0p#
0q#
0r#
0s#
0t#
0u#
0v#
b1 |
b1001 O
b100 R
b1001 /#
1("
0:"
0>"
0B"
0F"
0J"
0N"
0c"
0g"
0##
03#
b0 >
b0 ""
b0 7#
b1 !"
b1 >#
0A#
0C#
0E#
b10001 !
b10001 F#
1H
1G
1F
1E
1D
1C
1B
1=
1"
1z
00
0#
#13000
0H
0G
0F
0E
0D
0C
0B
0=
0"
#14000
b10 |
b1000 R
b101011 y
b1011 ?
b1010 A
b1 }
b10101100000000010100010011 (
b10101100000000010100010011 {
b0 .
b0 &"
1?#
04#
b1000 x
b100 )#
b1 '"
1H
1G
1F
1E
1D
1C
1B
1=
1"
#15000
0H
0G
0F
0E
0D
0C
0B
0=
0"
#16000
b11 |
b1100 R
b0 y
b0 ?
b1011 A
b0 }
b1011 K
b10110010011 (
b10110010011 {
b1010 ,#
b1011 2
b1011 6
b1011 :#
b10 '"
b101011 T
b101011 )"
b1000 +"
b1100 x
b1000 )#
b101111 $"
b100 *#
05#
1H
1G
1F
1E
1D
1C
1B
1=
1"
#17000
0H
0G
0F
0E
0D
0C
0B
0=
0"
#18000
b100 |
b10000 R
b101011 P
0`#
1a#
b101011 Q
b10001 A
b1010 O
b0 K
b100010010011 (
b100010010011 {
b1011 ,#
b1010 -#
b0 2
b0 6
b0 :#
b1011 =#
06#
b100 +#
b1000 *#
b10000 x
b1100 )#
b101011 (#
b1000 ,"
b1100 +"
b101011 *"
b1000 $"
b0 T
b0 )"
b11 '"
b101111 %"
1H
1G
1F
1E
1D
1C
1B
1=
1"
#19000
0H
0G
0F
0E
0D
0C
0B
0=
0"
#20000
19
b101 |
0)
b10100 R
1'
1+
b0 y
0v
b0 P
0a#
1b#
b1011 ?
b10001 @
1w
b110011 #"
b110011 S
b0 Q
b1011 O
b101110001000100010110011 (
b101110001000100010110011 {
b10001 ,#
b1011 -#
b1010 .#
b1000 %"
b100 '"
0N
b0 *"
b10000 +"
b1100 ,"
b0 (#
b10100 x
b10000 )#
b1100 $"
b1100 *#
b1000 +#
b1010 >
b1010 ""
b1010 7#
0M
b0 =#
b1011 !"
b1011 >#
1H
1G
1F
1E
1D
1C
1B
1=
1"
#21000
0H
0G
0F
0E
0D
0C
0B
0=
0"
#22000
1/
b110 |
b1 y
09
b11000 R
1)
0'
0+
1v
0b#
1h#
b1 ?
b1011 @
b1011 A
0w
b10011 #"
b10011 S
b10001 O
b0 T
b0 L
b101011000010110010011 (
b101011000010110010011 {
b1010 .
b1010 &"
b10001 -#
b1011 .#
b1010 /#
b10001 1
b10001 5
b10001 8#
b1011 6
b1011 :#
b0 !"
b0 >#
14
1;#
b0 >
b0 ""
b0 7#
b1100 +#
b10000 $"
b10000 *#
b11000 x
b10100 )#
0/"
1-"
b10000 ,"
b10100 +"
b101 '"
b1100 %"
1H
1G
1F
1E
1D
1C
1B
1=
1"
#23000
0H
0G
0F
0E
0D
0C
0B
0=
0"
